{
  "on_create": {
    "cmd": "",
    "args": ""
  },
  "on_start": {
    "cmd": "",
    "args": ""
  },
  "on_stop": {
    "cmd": "",
    "args": ""
  },
  "on_destroy": {
    "cmd": "",
    "args": ""
  },
  "on_restart": {
    "cmd": "",
    "args": ""
  },
  "on_kill": {
    "cmd": "",
    "args": ""
  }
}